Listening for transport dt_socket at address: 8000
17:11:35,020 INFO  ~ Starting /Users/denyprasetyo/Documents/Belajar/java/final/poc2019
:: loading settings :: url = jar:file:/Users/denyprasetyo/Documents/Belajar/java/play-1.5/play/framework/lib/ivy-2.4.0.jar!/org/apache/ivy/core/settings/ivysettings.xml
17:11:35,315 INFO  ~ Module docviewer is available (/Users/denyprasetyo/Documents/Belajar/java/play-1.5/play/modules/docviewer)
17:11:35,315 INFO  ~ Module jcommon is available (/Users/denyprasetyo/Documents/Belajar/java/final/jcommon/jcommon-core-1.5)
17:11:36,140 WARN  ~ You're running Play! in DEV mode
17:11:36,237 INFO  ~ Listening for HTTP on port 9000 (Waiting a first request to start) ...
~ Server is up and running
17:11:44,739 INFO  ~ Build#:1970.0101.07	JDK:1.8.0_222	OS:Mac OS X	USR:denyprasetyo
17:11:45,586 INFO  ~ Build#:1970.0101.07	JDK:1.8.0_222	OS:Mac OS X	USR:denyprasetyo
17:11:45,661 ERROR ~ 

@7ejn3f6gm
Failed to compile template /app/views/errors/500.html

Compilation error (In /app/models/Transaksi.java around line 13)
The file /app/models/Transaksi.java could not be compiled. Error raised is : BaseTable cannot be resolved to a type

play.exceptions.CompilationException: BaseTable cannot be resolved to a type
	at play.classloading.ApplicationCompiler$2.acceptResult(ApplicationCompiler.java:279)
	at org.eclipse.jdt.internal.compiler.Compiler.handleInternalException(Compiler.java:800)
	at org.eclipse.jdt.internal.compiler.Compiler.compile(Compiler.java:477)
	at org.eclipse.jdt.internal.compiler.Compiler.compile(Compiler.java:426)
	at play.classloading.ApplicationCompiler.compile(ApplicationCompiler.java:314)
	at play.classloading.ApplicationClassloader.getAllClasses(ApplicationClassloader.java:438)
	at play.classloading.ApplicationClassloader.getAssignableClasses(ApplicationClassloader.java:486)
	at play.templates.GroovyTemplateCompiler.compile(GroovyTemplateCompiler.java:32)
	at play.templates.TemplateCompiler.compile(TemplateCompiler.java:28)
	at play.templates.TemplateLoader.load(TemplateLoader.java:86)
	at play.templates.TemplateLoader.load(TemplateLoader.java:194)
	at play.server.PlayHandler.serve500(PlayHandler.java:809)
	at Invocation.HTTP Request(Play!)
17:11:45,667 INFO  ~ Build#:1970.0101.07	JDK:1.8.0_222	OS:Mac OS X	USR:denyprasetyo
17:11:45,745 ERROR ~ 

@7ejn3f6gl
Internal Server Error (500) for request GET /

Compilation error (In /app/models/Transaksi.java around line 13)
The file /app/models/Transaksi.java could not be compiled. Error raised is : BaseTable cannot be resolved to a type

play.exceptions.CompilationException: BaseTable cannot be resolved to a type
	at play.classloading.ApplicationCompiler$2.acceptResult(ApplicationCompiler.java:279)
	at org.eclipse.jdt.internal.compiler.Compiler.handleInternalException(Compiler.java:800)
	at org.eclipse.jdt.internal.compiler.Compiler.compile(Compiler.java:477)
	at org.eclipse.jdt.internal.compiler.Compiler.compile(Compiler.java:426)
	at play.classloading.ApplicationCompiler.compile(ApplicationCompiler.java:314)
	at play.classloading.ApplicationClassloader.getAllClasses(ApplicationClassloader.java:438)
	at play.Play.start(Play.java:547)
	at play.Play.detectChanges(Play.java:680)
	at play.Invoker$Invocation.init(Invoker.java:220)
	at Invocation.HTTP Request(Play!)
17:11:45,746 ERROR ~ 

@7ejn3f6gn
Error during the 500 response generation

Compilation error (In /app/models/Transaksi.java around line 13)
The file /app/models/Transaksi.java could not be compiled. Error raised is : BaseTable cannot be resolved to a type

play.exceptions.CompilationException: BaseTable cannot be resolved to a type
	at play.classloading.ApplicationCompiler$2.acceptResult(ApplicationCompiler.java:279)
	at org.eclipse.jdt.internal.compiler.Compiler.handleInternalException(Compiler.java:800)
	at org.eclipse.jdt.internal.compiler.Compiler.compile(Compiler.java:477)
	at org.eclipse.jdt.internal.compiler.Compiler.compile(Compiler.java:426)
	at play.classloading.ApplicationCompiler.compile(ApplicationCompiler.java:314)
	at play.classloading.ApplicationClassloader.getAllClasses(ApplicationClassloader.java:438)
	at play.classloading.ApplicationClassloader.getAssignableClasses(ApplicationClassloader.java:486)
	at play.templates.GroovyTemplateCompiler.endTag(GroovyTemplateCompiler.java:365)
	at play.templates.TemplateCompiler.generate(TemplateCompiler.java:93)
	at play.templates.TemplateCompiler.compile(TemplateCompiler.java:15)
	at play.templates.GroovyTemplateCompiler.compile(GroovyTemplateCompiler.java:39)
	at play.templates.TemplateCompiler.compile(TemplateCompiler.java:28)
	at play.templates.TemplateLoader.load(TemplateLoader.java:86)
	at play.templates.TemplateLoader.load(TemplateLoader.java:194)
	at play.server.PlayHandler.serve500(PlayHandler.java:809)
	at Invocation.HTTP Request(Play!)
17:11:48,245 ERROR ~ Restart: null
java.lang.NullPointerException
	at java.lang.instrument.ClassDefinition.<init>(ClassDefinition.java:63)
	at play.classloading.ApplicationClassloader.detectChanges(ApplicationClassloader.java:344)
	at play.Play.detectChanges(Play.java:663)
	at play.Invoker$Invocation.init(Invoker.java:220)
	at Invocation.HTTP Request(Play!)
17:11:48,287 INFO  ~ Build#:1970.0101.07	JDK:1.8.0_222	OS:Mac OS X	USR:denyprasetyo
17:11:48,376 INFO  ~ Build#:1970.0101.07	JDK:1.8.0_222	OS:Mac OS X	USR:denyprasetyo
17:11:48,459 ERROR ~ 

@7ejn3f6gp
Failed to compile template /app/views/errors/500.html

Compilation error (In /app/models/Transaksi.java around line 13)
The file /app/models/Transaksi.java could not be compiled. Error raised is : BaseTable cannot be resolved to a type

play.exceptions.CompilationException: BaseTable cannot be resolved to a type
	at play.classloading.ApplicationCompiler$2.acceptResult(ApplicationCompiler.java:279)
	at org.eclipse.jdt.internal.compiler.Compiler.handleInternalException(Compiler.java:800)
	at org.eclipse.jdt.internal.compiler.Compiler.compile(Compiler.java:477)
	at org.eclipse.jdt.internal.compiler.Compiler.compile(Compiler.java:426)
	at play.classloading.ApplicationCompiler.compile(ApplicationCompiler.java:314)
	at play.classloading.ApplicationClassloader.getAllClasses(ApplicationClassloader.java:438)
	at play.classloading.ApplicationClassloader.getAssignableClasses(ApplicationClassloader.java:486)
	at play.templates.GroovyTemplateCompiler.compile(GroovyTemplateCompiler.java:32)
	at play.templates.TemplateCompiler.compile(TemplateCompiler.java:28)
	at play.templates.TemplateLoader.load(TemplateLoader.java:86)
	at play.templates.TemplateLoader.load(TemplateLoader.java:194)
	at play.server.PlayHandler.serve500(PlayHandler.java:809)
	at Invocation.HTTP Request(Play!)
17:11:48,469 INFO  ~ Build#:1970.0101.07	JDK:1.8.0_222	OS:Mac OS X	USR:denyprasetyo
17:11:48,558 ERROR ~ 

@7ejn3f6go
Internal Server Error (500) for request GET /

Compilation error (In /app/models/Transaksi.java around line 13)
The file /app/models/Transaksi.java could not be compiled. Error raised is : BaseTable cannot be resolved to a type

play.exceptions.CompilationException: BaseTable cannot be resolved to a type
	at play.classloading.ApplicationCompiler$2.acceptResult(ApplicationCompiler.java:279)
	at org.eclipse.jdt.internal.compiler.Compiler.handleInternalException(Compiler.java:800)
	at org.eclipse.jdt.internal.compiler.Compiler.compile(Compiler.java:477)
	at org.eclipse.jdt.internal.compiler.Compiler.compile(Compiler.java:426)
	at play.classloading.ApplicationCompiler.compile(ApplicationCompiler.java:314)
	at play.classloading.ApplicationClassloader.getAllClasses(ApplicationClassloader.java:438)
	at play.Play.start(Play.java:547)
	at play.Play.detectChanges(Play.java:683)
	at play.Invoker$Invocation.init(Invoker.java:220)
	at Invocation.HTTP Request(Play!)
17:11:48,559 ERROR ~ 

@7ejn3f6h0
Error during the 500 response generation

Compilation error (In /app/models/Transaksi.java around line 13)
The file /app/models/Transaksi.java could not be compiled. Error raised is : BaseTable cannot be resolved to a type

play.exceptions.CompilationException: BaseTable cannot be resolved to a type
	at play.classloading.ApplicationCompiler$2.acceptResult(ApplicationCompiler.java:279)
	at org.eclipse.jdt.internal.compiler.Compiler.handleInternalException(Compiler.java:800)
	at org.eclipse.jdt.internal.compiler.Compiler.compile(Compiler.java:477)
	at org.eclipse.jdt.internal.compiler.Compiler.compile(Compiler.java:426)
	at play.classloading.ApplicationCompiler.compile(ApplicationCompiler.java:314)
	at play.classloading.ApplicationClassloader.getAllClasses(ApplicationClassloader.java:438)
	at play.classloading.ApplicationClassloader.getAssignableClasses(ApplicationClassloader.java:486)
	at play.templates.GroovyTemplateCompiler.endTag(GroovyTemplateCompiler.java:365)
	at play.templates.TemplateCompiler.generate(TemplateCompiler.java:93)
	at play.templates.TemplateCompiler.compile(TemplateCompiler.java:15)
	at play.templates.GroovyTemplateCompiler.compile(GroovyTemplateCompiler.java:39)
	at play.templates.TemplateCompiler.compile(TemplateCompiler.java:28)
	at play.templates.TemplateLoader.load(TemplateLoader.java:86)
	at play.templates.TemplateLoader.load(TemplateLoader.java:194)
	at play.server.PlayHandler.serve500(PlayHandler.java:809)
	at Invocation.HTTP Request(Play!)
17:11:50,189 INFO  ~ Build#:1970.0101.07	JDK:1.8.0_222	OS:Mac OS X	USR:denyprasetyo
17:11:50,234 ERROR ~ 

@7ejn3f6h2
Failed to compile template /app/views/errors/500.html

Compilation error (In /app/models/Transaksi.java around line 13)
The file /app/models/Transaksi.java could not be compiled. Error raised is : BaseTable cannot be resolved to a type

play.exceptions.CompilationException: BaseTable cannot be resolved to a type
	at play.classloading.ApplicationCompiler$2.acceptResult(ApplicationCompiler.java:279)
	at org.eclipse.jdt.internal.compiler.Compiler.handleInternalException(Compiler.java:800)
	at org.eclipse.jdt.internal.compiler.Compiler.compile(Compiler.java:477)
	at org.eclipse.jdt.internal.compiler.Compiler.compile(Compiler.java:426)
	at play.classloading.ApplicationCompiler.compile(ApplicationCompiler.java:314)
	at play.classloading.ApplicationClassloader.getAllClasses(ApplicationClassloader.java:438)
	at play.classloading.ApplicationClassloader.getAssignableClasses(ApplicationClassloader.java:486)
	at play.templates.GroovyTemplateCompiler.compile(GroovyTemplateCompiler.java:32)
	at play.templates.TemplateCompiler.compile(TemplateCompiler.java:28)
	at play.templates.TemplateLoader.load(TemplateLoader.java:86)
	at play.templates.TemplateLoader.load(TemplateLoader.java:194)
	at play.server.PlayHandler.serve500(PlayHandler.java:809)
	at Invocation.HTTP Request(Play!)
17:11:50,235 INFO  ~ Build#:1970.0101.07	JDK:1.8.0_222	OS:Mac OS X	USR:denyprasetyo
17:11:50,274 ERROR ~ 

@7ejn3f6h1
Internal Server Error (500) for request GET /

Compilation error (In {module:jcommon-core}/app/models/jcommon/db/base/BaseModel.java around line 22)
The file {module:jcommon-core}/app/models/jcommon/db/base/BaseModel.java could not be compiled. Error raised is : BaseTable cannot be resolved to a type

play.exceptions.CompilationException: BaseTable cannot be resolved to a type
	at play.classloading.ApplicationCompiler$2.acceptResult(ApplicationCompiler.java:279)
	at org.eclipse.jdt.internal.compiler.Compiler.handleInternalException(Compiler.java:800)
	at org.eclipse.jdt.internal.compiler.Compiler.compile(Compiler.java:477)
	at org.eclipse.jdt.internal.compiler.Compiler.compile(Compiler.java:426)
	at play.classloading.ApplicationCompiler.compile(ApplicationCompiler.java:314)
	at play.classloading.ApplicationClasses$ApplicationClass.compile(ApplicationClasses.java:315)
	at play.classloading.ApplicationClassloader.detectChanges(ApplicationClassloader.java:334)
	at play.Play.detectChanges(Play.java:663)
	at play.Invoker$Invocation.init(Invoker.java:220)
	at Invocation.HTTP Request(Play!)
17:11:50,274 ERROR ~ 

@7ejn3f6h3
Error during the 500 response generation

Compilation error (In /app/models/Transaksi.java around line 13)
The file /app/models/Transaksi.java could not be compiled. Error raised is : BaseTable cannot be resolved to a type

play.exceptions.CompilationException: BaseTable cannot be resolved to a type
	at play.classloading.ApplicationCompiler$2.acceptResult(ApplicationCompiler.java:279)
	at org.eclipse.jdt.internal.compiler.Compiler.handleInternalException(Compiler.java:800)
	at org.eclipse.jdt.internal.compiler.Compiler.compile(Compiler.java:477)
	at org.eclipse.jdt.internal.compiler.Compiler.compile(Compiler.java:426)
	at play.classloading.ApplicationCompiler.compile(ApplicationCompiler.java:314)
	at play.classloading.ApplicationClassloader.getAllClasses(ApplicationClassloader.java:438)
	at play.classloading.ApplicationClassloader.getAssignableClasses(ApplicationClassloader.java:486)
	at play.templates.GroovyTemplateCompiler.endTag(GroovyTemplateCompiler.java:365)
	at play.templates.TemplateCompiler.generate(TemplateCompiler.java:93)
	at play.templates.TemplateCompiler.compile(TemplateCompiler.java:15)
	at play.templates.GroovyTemplateCompiler.compile(GroovyTemplateCompiler.java:39)
	at play.templates.TemplateCompiler.compile(TemplateCompiler.java:28)
	at play.templates.TemplateLoader.load(TemplateLoader.java:86)
	at play.templates.TemplateLoader.load(TemplateLoader.java:194)
	at play.server.PlayHandler.serve500(PlayHandler.java:809)
	at Invocation.HTTP Request(Play!)
